…
### 1) Generating the Collatz Conjecture

Create a function in R (call it `gen_collatz`) that takes a positive
integer `n` as input and generates the Collatz sequence until it
reaches 1. Implement a safeguard within your function to handle
instances where the input `n` is invalid.

Apply this function to all integers from 1 to 10,000 and store the
results in a tibble (named `collatz_df`). The tibble (at minimum) should
contain two columns: `start` (the starting integer value) and `seq` (the
Collatz sequence saved as a list). It should look something like this:

``` r
collatz_df
#> # A tibble: 10,000 × 5
#>    start seq        length parity max_val
#>    <int> <list>      <dbl> <chr>    <dbl>
#>  1     1 <dbl [1]>       1 Odd          1
#>  2     2 <dbl [2]>       2 Even         2
#>  3     3 <dbl [8]>       8 Odd         16
#>  4     4 <dbl [3]>       3 Even         4
#>  5     5 <dbl [6]>       6 Odd         16
#>  6     6 <dbl [9]>       9 Even        16
#>  7     7 <dbl [17]>     17 Odd         52
#>  8     8 <dbl [4]>       4 Even         8
#>  9     9 <dbl [20]>     20 Odd         52
#> 10    10 <dbl [7]>       7 Even        16
#> # ℹ 9,990 more rows
```
…
